College projects/Diseño de Procesadores (Ensamblador, VHDL y C)/Proyecto LIbre Piano/Codigo_Proyecto_libre/cc_tb.vcd
$date
	Mon Apr  3 13:32:58 2017
$end
$version
	Icarus Verilog
$end
$timescale
	10ps
$end
$scope module micro_tb $end
$var wire 8 ! test_ESal1 [7:0] $end
$var wire 8 " test_ESal2 [7:0] $end
$var wire 8 # test_ESal3 [7:0] $end
$var wire 8 $ test_ESal4 [7:0] $end
$var wire 10 % test_PC [9:0] $end
$var reg 1 & clk $end
$var reg 1 ' reset $end
$var reg 8 ( test_EntS1 [7:0] $end
$var reg 8 ) test_EntS2 [7:0] $end
$var reg 8 * test_EntS3 [7:0] $end
$var reg 8 + test_EntS4 [7:0] $end
$scope module cc_test $end
$var wire 8 , ESal1 [7:0] $end
$var wire 8 - ESal2 [7:0] $end
$var wire 8 . ESal3 [7:0] $end
$var wire 8 / ESal4 [7:0] $end
$var wire 8 0 EntS1 [7:0] $end
$var wire 8 1 EntS2 [7:0] $end
$var wire 8 2 EntS2Mod [7:0] $end
$var wire 8 3 EntS3 [7:0] $end
$var wire 8 4 EntS4 [7:0] $end
$var wire 1 5 SalI $end
$var wire 10 6 SalPC [9:0] $end
$var wire 1 7 SalR $end
$var wire 1 8 c_jr $end
$var wire 1 9 clk $end
$var wire 1 : entI $end
$var wire 3 ; op [2:0] $end
$var wire 6 < opcode [5:0] $end
$var wire 1 = reset $end
$var wire 1 > s_inc $end
$var wire 1 ? s_inm $end
$var wire 1 @ s_jr $end
$var wire 1 A s_rel $end
$var wire 1 B we3 $end
$var wire 1 C z $end
$scope module micro1 $end
$var wire 8 D ESal1 [7:0] $end
$var wire 8 E ESal2 [7:0] $end
$var wire 8 F ESal3 [7:0] $end
$var wire 8 G ESal4 [7:0] $end
$var wire 8 H EntS1 [7:0] $end
$var wire 8 I EntS2 [7:0] $end
$var wire 8 J EntS3 [7:0] $end
$var wire 8 K EntS4 [7:0] $end
$var wire 8 L SalAlu [7:0] $end
$var wire 1 M SalDec1 $end
$var wire 1 N SalDec2 $end
$var wire 1 O SalDec3 $end
$var wire 1 P SalDec4 $end
$var wire 1 5 SalI $end
$var wire 10 Q SalJr [9:0] $end
$var wire 16 R SalMem [15:0] $end
$var wire 10 S SalMux10Jr [9:0] $end
$var wire 10 T SalMux10Pc [9:0] $end
$var wire 10 U SalMux10Sum [9:0] $end
$var wire 8 V SalMux8 [7:0] $end
$var wire 8 W SalMux8Ent [7:0] $end
$var wire 8 X SalMux8I [7:0] $end
$var wire 8 Y SalMux8Sal [7:0] $end
$var wire 10 Z SalPc [9:0] $end
$var wire 1 7 SalR $end
$var wire 8 [ SalR1 [7:0] $end
$var wire 8 \ SalR2 [7:0] $end
$var wire 10 ] SalSum [9:0] $end
$var wire 1 8 c_jr $end
$var wire 1 9 clk $end
$var wire 1 : entI $end
$var wire 3 ^ op [2:0] $end
$var wire 6 _ opcode [5:0] $end
$var wire 1 = reset $end
$var wire 1 > s_inc $end
$var wire 1 ? s_inm $end
$var wire 1 @ s_jr $end
$var wire 1 A s_rel $end
$var wire 1 B we3 $end
$var wire 1 C z $end
$var reg 10 ` RegJr [9:0] $end
$var reg 8 a SalIntI [7:0] $end
$var reg 8 b SalIntR [7:0] $end
$scope module jr $end
$var wire 1 9 clk $end
$var wire 10 c d [9:0] $end
$var wire 1 = reset $end
$var reg 10 d q [9:0] $end
$upscope $end
$scope module mux10jr $end
$var wire 10 e d0 [9:0] $end
$var wire 10 f d1 [9:0] $end
$var wire 1 @ s $end
$var wire 10 g y [9:0] $end
$upscope $end
$scope module pc $end
$var wire 1 9 clk $end
$var wire 10 h d [9:0] $end
$var wire 1 = reset $end
$var reg 10 i q [9:0] $end
$upscope $end
$scope module mux10pc $end
$var wire 10 j d0 [9:0] $end
$var wire 10 k d1 [9:0] $end
$var wire 1 > s $end
$var wire 10 l y [9:0] $end
$upscope $end
$scope module mux10sum $end
$var wire 10 m d0 [9:0] $end
$var wire 10 n d1 [9:0] $end
$var wire 1 A s $end
$var wire 10 o y [9:0] $end
$upscope $end
$scope module pc1 $end
$var wire 10 p a [9:0] $end
$var wire 10 q b [9:0] $end
$var wire 10 r y [9:0] $end
$upscope $end
$scope module meminst $end
$var wire 10 s a [9:0] $end
$var wire 1 9 clk $end
$var wire 16 t rd [15:0] $end
$upscope $end
$scope module banreg $end
$var wire 1 9 clk $end
$var wire 4 u ra1 [3:0] $end
$var wire 4 v ra2 [3:0] $end
$var wire 8 w rd1 [7:0] $end
$var wire 8 x rd2 [7:0] $end
$var wire 4 y wa3 [3:0] $end
$var wire 8 z wd3 [7:0] $end
$var wire 1 B we3 $end
$upscope $end
$scope module mux8alu $end
$var wire 8 { d0 [7:0] $end
$var wire 8 | d1 [7:0] $end
$var wire 1 ? s $end
$var wire 8 } y [7:0] $end
$upscope $end
$scope module alu8 $end
$var wire 8 ~ a [7:0] $end
$var wire 8 !" b [7:0] $end
$var wire 3 "" op [2:0] $end
$var wire 8 #" y [7:0] $end
$var wire 1 C zero $end
$var reg 8 $" s [7:0] $end
$upscope $end
$scope module mux8sent $end
$var wire 8 %" d0 [7:0] $end
$var wire 8 &" d1 [7:0] $end
$var wire 8 '" d2 [7:0] $end
$var wire 8 (" d3 [7:0] $end
$var wire 2 )" s [1:0] $end
$var wire 8 *" y [7:0] $end
$upscope $end
$scope module mux8inm $end
$var wire 8 +" d0 [7:0] $end
$var wire 8 ," d1 [7:0] $end
$var wire 1 : s $end
$var wire 8 -" y [7:0] $end
$upscope $end
$scope module mux8sal $end
$var wire 8 ." d0 [7:0] $end
$var wire 8 /" d1 [7:0] $end
$var wire 1 5 s $end
$var wire 8 0" y [7:0] $end
$upscope $end
$scope module sal1 $end
$var wire 1 9 clk $end
$var wire 8 1" d [7:0] $end
$var wire 1 M enable $end
$var wire 1 = reset $end
$var reg 8 2" q [7:0] $end
$upscope $end
$scope module sal2 $end
$var wire 1 9 clk $end
$var wire 8 3" d [7:0] $end
$var wire 1 N enable $end
$var wire 1 = reset $end
$var reg 8 4" q [7:0] $end
$upscope $end
$scope module sal3 $end
$var wire 1 9 clk $end
$var wire 8 5" d [7:0] $end
$var wire 1 O enable $end
$var wire 1 = reset $end
$var reg 8 6" q [7:0] $end
$upscope $end
$scope module sal4 $end
$var wire 1 9 clk $end
$var wire 8 7" d [7:0] $end
$var wire 1 P enable $end
$var wire 1 = reset $end
$var reg 8 8" q [7:0] $end
$upscope $end
$scope module dec8ssal $end
$var wire 1 9" enable $end
$var wire 2 :" s [1:0] $end
$var wire 1 M y0 $end
$var wire 1 N y1 $end
$var wire 1 O y2 $end
$var wire 1 P y3 $end
$upscope $end
$upscope $end
$scope module uc1 $end
$var wire 1 5 SalI $end
$var wire 1 7 SalR $end
$var wire 1 8 c_jr $end
$var wire 1 9 clk $end
$var wire 1 : entI $end
$var wire 3 ;" op [2:0] $end
$var wire 6 <" opcode [5:0] $end
$var wire 1 > s_inc $end
$var wire 1 ? s_inm $end
$var wire 1 @ s_jr $end
$var wire 1 A s_rel $end
$var wire 1 B we3 $end
$var wire 1 C z $end
$var reg 1 =" rz $end
$upscope $end
$upscope $end
$upscope $end
$enddefinitions $end
#0
$dumpvars
0="
b1011 <"
b10 ;"
b1 :"
19"
b0 8"
b0 7"
b0 6"
b0 5"
b0 4"
b0 3"
b0 2"
b0 1"
b0 0"
b0 /"
b0 ."
b11000000 -"
b11000000 ,"
b0 +"
b0 *"
b0 )"
b0 ("
b0 '"
b111 &"
b0 %"
bx $"
bx #"
b10 ""
b0 !"
bx ~
bx }
b11000000 |
bx {
bx z
b1 y
b0 x
bx w
b0 v
b1100 u
b10110000000001 t
b0 s
b1 r
b1 q
b0 p
b1 o
b1 n
b1 m
b1 l
b1 k
b1 j
b0 i
b1 h
b1 g
b1 f
b0 e
b0 d
bx c
b0 b
b0 a
bx `
b1011 _
b10 ^
b1 ]
b0 \
bx [
b0 Z
b0 Y
b11000000 X
b0 W
bx V
b1 U
b1 T
b1 S
b10110000000001 R
b0 Q
0P
0O
1N
0M
bx L
b0 K
b0 J
b111 I
b0 H
b0 G
b0 F
b0 E
b0 D
xC
0B
0A
1@
0?
1>
1=
b1011 <
b10 ;
1:
19
08
07
b0 6
15
b0 4
b0 3
b111 2
b111 1
b0 0
b0 /
b0 .
b0 -
b0 ,
b0 +
b0 *
b111 )
b0 (
1'
1&
b0 %
b0 $
b0 #
b0 "
b0 !
$end
#1000
0&
09
#1500
0'
0=
#2000
1>
1B
09"
1?
1:
0N
0P
1C
b0 V
b0 z
b0 }
07
05
b0 $"
b0 L
b0 {
b0 #"
b0 X
b0 |
b0 -"
b0 [
b0 w
b0 ~
b100 ;
b100 ^
b100 ""
b100 ;"
b1111 S
b1111 g
b1111 j
b10 T
b10 h
b10 l
b11 :"
b0 ,"
b1111 y
b0 u
b10000 <
b10000 _
b10000 <"
b1111 n
b1111 f
b1 i
b10 ]
b10 k
b10 r
b100000000001111 R
b100000000001111 t
b1 %
b1 6
b1 Z
b1 p
b1 s
bx d
bx Q
bx e
1&
19
#3000
0&
09
#4000
b111 V
b111 z
b111 }
b111 X
b111 |
b111 -"
bx \
bx x
bx !"
b1110100 S
b1110100 g
b1110100 j
b11 T
b11 h
b11 l
b0 :"
b111 ,"
b100 y
b111 v
b1110100 n
b1110100 f
b10 i
b11 ]
b11 k
b11 r
b100000001110100 R
b100000001110100 t
b10 %
b10 6
b10 Z
b10 p
b10 s
1&
19
#5000
0&
09
#6000
b0 V
b0 z
b0 }
b0 X
b0 |
b0 -"
b0 \
b0 x
b0 !"
b1010 S
b1010 g
b1010 j
b100 T
b100 h
b100 l
b10 :"
b0 ,"
b1010 y
b0 v
b1010 n
b1010 f
b11 i
b100 ]
b100 k
b100 r
b100000000001010 R
b100000000001010 t
b11 %
b11 6
b11 Z
b11 p
b11 s
1&
19
#7000
0&
09
#8000
b111 V
b111 z
b111 }
b111 X
b111 |
b111 -"
bx \
bx x
bx !"
b1111011 S
b1111011 g
b1111011 j
b101 T
b101 h
b101 l
b11 :"
b111 ,"
b1011 y
b111 v
b1111011 n
b1111011 f
b100 i
b101 ]
b101 k
b101 r
b100000001111011 R
b100000001111011 t
b100 %
b100 6
b100 Z
b100 p
b100 s
1&
19
#9000
0&
09
#10000
b110 V
b110 z
b110 }
b110 X
b110 |
b110 -"
b1100001 S
b1100001 g
b1100001 j
b110 T
b110 h
b110 l
b1 :"
b110 ,"
b1 y
b110 v
b1100001 n
b1100001 f
b101 i
b110 ]
b110 k
b110 r
b100000001100001 R
b100000001100001 t
b101 %
b101 6
b101 Z
b101 p
b101 s
1&
19
#11000
0&
09
#11500
b11 W
b11 *"
b11 +"
b11 (
b11 0
b11 H
b11 %"
#12000
b101 V
b101 z
b101 }
b101 X
b101 |
b101 -"
b1010010 S
b1010010 g
b1010010 j
b111 T
b111 h
b111 l
b10 :"
b101 ,"
b10 y
b101 v
b1010010 n
b1010010 f
b110 i
b111 ]
b111 k
b111 r
b100000001010010 R
b100000001010010 t
b110 %
b110 6
b110 Z
b110 p
b110 s
1&
19
#13000
0&
09
#14000
b11 V
b11 z
b11 }
b11 X
b11 |
b11 -"
b110011 S
b110011 g
b110011 j
b1000 T
b1000 h
b1000 l
b11 :"
b11 ,"
b11 y
b11 v
b110011 n
b110011 f
b111 i
b1000 ]
b1000 k
b1000 r
b100000000110011 R
b100000000110011 t
b111 %
b111 6
b111 Z
b111 p
b111 s
1&
19
#15000
0&
09
#16000
0:
1B
1?
b11 V
b11 z
b11 }
b11 X
b11 |
b11 -"
b10 ;
b10 ^
b10 ""
b10 ;"
b1001 S
b1001 g
b1001 j
b0 \
b0 x
b0 !"
b1001 T
b1001 h
b1001 l
b1 :"
b0 ,"
b1001 y
b0 v
b1000 <
b1000 _
b1000 <"
b1001 n
b1001 f
b1000 i
b1001 ]
b1001 k
b1001 r
b10000000001001 R
b10000000001001 t
b1000 %
b1000 6
b1000 Z
b1000 p
b1000 s
1&
19
#17000
0&
09
#18000
0O
b111 V
b111 z
b111 }
0?
09"
b10110000 X
b10110000 |
b10110000 -"
1:
07
b0 W
b0 *"
b0 +"
0C
b111 $"
b111 L
b111 {
b111 #"
0="
b111 [
b111 w
b111 ~
b1100001010 S
b1100001010 g
b1100001010 j
b1010 T
b1010 h
b1010 l
b10 :"
b10110000 ,"
b11 )"
b1010 y
b1011 u
b101010 <
b101010 _
b101010 <"
b1100001010 n
b1100001010 f
b1001 i
b1010 ]
b1010 k
b1010 r
b1010101100001010 R
b1010101100001010 t
b1001 %
b1001 6
b1001 Z
b1001 p
b1001 s
1&
19
#19000
0&
09
#20000
1?
0:
b111 W
b111 *"
b111 +"
b111 V
b111 z
b111 }
1B
b110 $"
b110 L
b110 {
b110 #"
b111 X
b111 |
b111 -"
b110 [
b110 w
b110 ~
b100001011 S
b100001011 g
b100001011 j
b1011 T
b1011 h
b1011 l
b11 :"
b10000 ,"
b1 )"
b1011 y
b1 u
b1000 <
b1000 _
b1000 <"
b100001011 n
b100001011 f
b1010 i
b1011 ]
b1011 k
b1011 r
b10000100001011 R
b10000100001011 t
b1010 %
b1010 6
b1010 Z
b1010 p
b1010 s
1&
19
#21000
0&
09
#22000
0B
1N
b111 Y
b111 0"
b111 1"
b111 3"
b111 5"
b111 7"
bx V
bx z
bx }
0?
19"
b111 b
b111 ."
b10001011 X
b10001011 |
b10001011 -"
1:
17
b11 W
b11 *"
b11 +"
xC
bx $"
bx L
bx {
bx #"
b111 \
b111 x
b111 !"
bx [
bx w
bx ~
b10110001 S
b10110001 g
b10110001 j
b1100 T
b1100 h
b1100 l
b1 :"
b10001011 ,"
b0 )"
b1 y
b1011 v
b1000 u
b1010 <
b1010 _
b1010 <"
b10110001 n
b10110001 f
b1011 i
b1100 ]
b1100 k
b1100 r
b10100010110001 R
b10100010110001 t
b1011 %
b1011 6
b1011 Z
b1011 p
b1011 s
1&
19
#23000
b111 4"
b111 "
b111 -
b111 E
0&
09
#24000
b0 Y
b0 0"
b0 1"
b0 3"
b0 5"
b0 7"
09"
b0 b
b0 ."
07
0N
0O
b0 W
b0 *"
b0 +"
1B
1C
b0 V
b0 z
b0 }
b0 $"
b0 L
b0 {
b0 #"
1="
b10110100 X
b10110100 |
b10110100 -"
b111 [
b111 w
b111 ~
b11 ;
b11 ^
b11 ""
b11 ;"
b1101001110 S
b1101001110 g
b1101001110 j
b1101 T
b1101 h
b1101 l
b10 :"
b10110100 ,"
b11 )"
b1110 y
b100 v
b1011 u
b101110 <
b101110 _
b101110 <"
b1101001110 n
b1101001110 f
b1100 i
b1101 ]
b1101 k
b1101 r
b1011101101001110 R
b1011101101001110 t
b1100 %
b1100 6
b1100 Z
b1100 p
b1100 s
1&
19
#25000
0&
09
#26000
0>
b11 W
b11 *"
b11 +"
0B
xC
bx V
bx z
bx }
bx $"
bx L
bx {
bx #"
b11000000 X
b11000000 |
b11000000 -"
b0 \
b0 x
b0 !"
bx [
bx w
bx ~
b0 ;
b0 ^
b0 ""
b0 ;"
b1000 S
b1000 g
b1000 j
b1000 T
b1000 h
b1000 l
b0 :"
b11000000 ,"
b0 )"
b1000 y
b0 v
b1100 u
b11 <
b11 _
b11 <"
b1000 n
b1000 f
b1101 i
b1110 ]
b1110 k
b1110 r
b110000001000 R
b110000001000 t
b1101 %
b1101 6
b1101 Z
b1101 p
b1101 s
1&
19
#26500
b101 2
b101 )
b101 1
b101 I
b101 &"
#27000
0&
09
#28000
1>
1B
1?
0:
1C
b11 V
b11 z
b11 }
b0 $"
b0 L
b0 {
b0 #"
b1001 T
b1001 h
b1001 l
b11 X
b11 |
b11 -"
b0 [
b0 w
b0 ~
b10 ;
b10 ^
b10 ""
b10 ;"
b1001 S
b1001 g
b1001 j
b1 :"
b0 ,"
b1001 y
b0 u
b1000 <
b1000 _
b1000 <"
b1001 n
b1001 f
b1000 i
b1001 ]
b1001 k
b1001 r
b10000000001001 R
b10000000001001 t
b1000 %
b1000 6
b1000 Z
b1000 p
b1000 s
1&
19
#29000
0&
09
#30000
0O
b111 V
b111 z
b111 }
0?
09"
b10110000 X
b10110000 |
b10110000 -"
0="
1:
07
b0 W
b0 *"
b0 +"
0C
b111 $"
b111 L
b111 {
b111 #"
b111 [
b111 w
b111 ~
b1100001010 S
b1100001010 g
b1100001010 j
b1010 T
b1010 h
b1010 l
b10 :"
b10110000 ,"
b11 )"
b1010 y
b1011 u
b101010 <
b101010 _
b101010 <"
b1100001010 n
b1100001010 f
b1001 i
b1010 ]
b1010 k
b1010 r
b1010101100001010 R
b1010101100001010 t
b1001 %
b1001 6
b1001 Z
b1001 p
b1001 s
1&
19
#31000
0&
09
#32000
1?
0:
b101 W
b101 *"
b101 +"
b101 V
b101 z
b101 }
1B
b110 $"
b110 L
b110 {
b110 #"
b101 X
b101 |
b101 -"
b110 [
b110 w
b110 ~
b100001011 S
b100001011 g
b100001011 j
b1011 T
b1011 h
b1011 l
b11 :"
b10000 ,"
b1 )"
b1011 y
b1 u
b1000 <
b1000 _
b1000 <"
b100001011 n
b100001011 f
b1010 i
b1011 ]
b1011 k
b1011 r
b10000100001011 R
b10000100001011 t
b1010 %
b1010 6
b1010 Z
b1010 p
b1010 s
1&
19
#33000
0&
09
#34000
0B
1N
b101 Y
b101 0"
b101 1"
b101 3"
b101 5"
b101 7"
bx V
bx z
bx }
0?
19"
b101 b
b101 ."
b10001011 X
b10001011 |
b10001011 -"
1:
17
b11 W
b11 *"
b11 +"
xC
bx $"
bx L
bx {
bx #"
b101 \
b101 x
b101 !"
bx [
bx w
bx ~
b10110001 S
b10110001 g
b10110001 j
b1100 T
b1100 h
b1100 l
b1 :"
b10001011 ,"
b0 )"
b1 y
b1011 v
b1000 u
b1010 <
b1010 _
b1010 <"
b10110001 n
b10110001 f
b1011 i
b1100 ]
b1100 k
b1100 r
b10100010110001 R
b10100010110001 t
b1011 %
b1011 6
b1011 Z
b1011 p
b1011 s
1&
19
#35000
b101 4"
b101 "
b101 -
b101 E
0&
09
#36000
b0 Y
b0 0"
b0 1"
b0 3"
b0 5"
b0 7"
09"
b0 b
b0 ."
07
0N
0O
b0 W
b0 *"
b0 +"
1B
0C
b11111110 V
b11111110 z
b11111110 }
b11111110 $"
b11111110 L
b11111110 {
b11111110 #"
0="
b10110100 X
b10110100 |
b10110100 -"
b111 \
b111 x
b111 !"
b101 [
b101 w
b101 ~
b11 ;
b11 ^
b11 ""
b11 ;"
b1101001110 S
b1101001110 g
b1101001110 j
b1101 T
b1101 h
b1101 l
b10 :"
b10110100 ,"
b11 )"
b1110 y
b100 v
b1011 u
b101110 <
b101110 _
b101110 <"
b1101001110 n
b1101001110 f
b1100 i
b1101 ]
b1101 k
b1101 r
b1011101101001110 R
b1011101101001110 t
b1100 %
b1100 6
b1100 Z
b1100 p
b1100 s
1&
19
#37000
0&
09
#38000
b11 W
b11 *"
b11 +"
0B
xC
bx V
bx z
bx }
bx $"
bx L
bx {
bx #"
b11000000 X
b11000000 |
b11000000 -"
b0 \
b0 x
b0 !"
bx [
bx w
bx ~
b0 ;
b0 ^
b0 ""
b0 ;"
b1000 S
b1000 g
b1000 j
b1110 T
b1110 h
b1110 l
b0 :"
b11000000 ,"
b0 )"
b1000 y
b0 v
b1100 u
b11 <
b11 _
b11 <"
b1000 n
b1000 f
b1101 i
b1110 ]
b1110 k
b1110 r
b110000001000 R
b110000001000 t
b1101 %
b1101 6
b1101 Z
b1101 p
b1101 s
1&
19
#39000
0&
09
#40000
1>
b1 U
b1 o
b1 q
0A
b0 W
b0 *"
b0 +"
1B
1C
b0 V
b0 z
b0 }
b0 $"
b0 L
b0 {
b0 #"
1="
b10100100 X
b10100100 |
b10100100 -"
b111 \
b111 x
b111 !"
b111 [
b111 w
b111 ~
b11 ;
b11 ^
b11 ""
b11 ;"
b1001001110 S
b1001001110 g
b1001001110 j
b1111 T
b1111 h
b1111 l
b10 :"
b10100100 ,"
b10 )"
b1110 y
b100 v
b1010 u
b101110 <
b101110 _
b101110 <"
b1001001110 n
b1001001110 f
b1110 i
b1111 ]
b1111 k
b1111 r
b1011101001001110 R
b1011101001001110 t
b1110 %
b1110 6
b1110 Z
b1110 p
b1110 s
1&
19
#41000
0&
09
#42000
b11 W
b11 *"
b11 +"
0B
xC
bx V
bx z
bx }
bx $"
bx L
bx {
bx #"
b10000000 X
b10000000 |
b10000000 -"
b0 \
b0 x
b0 !"
bx [
bx w
bx ~
b0 ;
b0 ^
b0 ""
b0 ;"
b1000 S
b1000 g
b1000 j
b10000 T
b10000 h
b10000 l
b0 :"
b10000000 ,"
b0 )"
b1000 y
b0 v
b1000 u
b10 <
b10 _
b10 <"
b1000 n
b1000 f
b1111 i
b10000 ]
b10000 k
b10000 r
b100000001000 R
b100000001000 t
b1111 %
b1111 6
b1111 Z
b1111 p
b1111 s
1&
19
#43000
0&
09
#44000
b1 U
b1 o
b1 q
0A
b0 W
b0 *"
b0 +"
1B
0C
b11111111 V
b11111111 z
b11111111 }
b11111111 $"
b11111111 L
b11111111 {
b11111111 #"
0="
b10110001 X
b10110001 |
b10110001 -"
b110 \
b110 x
b110 !"
b101 [
b101 w
b101 ~
b11 ;
b11 ^
b11 ""
b11 ;"
b1100011110 S
b1100011110 g
b1100011110 j
b10001 T
b10001 h
b10001 l
b10 :"
b10110001 ,"
b11 )"
b1110 y
b1 v
b1011 u
b101110 <
b101110 _
b101110 <"
b1100011110 n
b1100011110 f
b10000 i
b10001 ]
b10001 k
b10001 r
b1011101100011110 R
b1011101100011110 t
b10000 %
b10000 6
b10000 Z
b10000 p
b10000 s
1&
19
#45000
0&
09
#46000
b11 W
b11 *"
b11 +"
0B
xC
bx V
bx z
bx }
bx $"
bx L
bx {
bx #"
b11000001 X
b11000001 |
b11000001 -"
bx [
bx w
bx ~
b0 ;
b0 ^
b0 ""
b0 ;"
b10110 S
b10110 g
b10110 j
b10010 T
b10010 h
b10010 l
b11000001 ,"
b0 )"
b110 y
b1100 u
b11 <
b11 _
b11 <"
b10110 n
b10110 f
b10001 i
b10010 ]
b10010 k
b10010 r
b110000010110 R
b110000010110 t
b10001 %
b10001 6
b10001 Z
b10001 p
b10001 s
1&
19
#46500
b0 2
b0 )
b0 1
b0 I
b0 &"
#47000
0&
09
#48000
1>
b1 U
b1 o
b1 q
0A
b0 W
b0 *"
b0 +"
1B
1C
b0 V
b0 z
b0 }
b0 $"
b0 L
b0 {
b0 #"
1="
b10110010 X
b10110010 |
b10110010 -"
b101 \
b101 x
b101 !"
b101 [
b101 w
b101 ~
b11 ;
b11 ^
b11 ""
b11 ;"
b1100101110 S
b1100101110 g
b1100101110 j
b10011 T
b10011 h
b10011 l
b10110010 ,"
b11 )"
b1110 y
b10 v
b1011 u
b101110 <
b101110 _
b101110 <"
b1100101110 n
b1100101110 f
b10010 i
b10011 ]
b10011 k
b10011 r
b1011101100101110 R
b1011101100101110 t
b10010 %
b10010 6
b10010 Z
b10010 p
b10010 s
1&
19
#49000
0&
09
#50000
0>
b11 W
b11 *"
b11 +"
0B
xC
bx V
bx z
bx }
bx $"
bx L
bx {
bx #"
b11000001 X
b11000001 |
b11000001 -"
b110 \
b110 x
b110 !"
bx [
bx w
bx ~
b0 ;
b0 ^
b0 ""
b0 ;"
b11001 S
b11001 g
b11001 j
b11001 T
b11001 h
b11001 l
b1 :"
b11000001 ,"
b0 )"
b1001 y
b1 v
b1100 u
b11 <
b11 _
b11 <"
b11001 n
b11001 f
b10011 i
b10100 ]
b10100 k
b10100 r
b110000011001 R
b110000011001 t
b10011 %
b10011 6
b10011 Z
b10011 p
b10011 s
1&
19
#51000
0&
09
#52000
0P
1>
b0 Y
b0 0"
b0 1"
b0 3"
b0 5"
b0 7"
09"
b0 a
b0 /"
05
b0 W
b0 *"
b0 +"
1B
0C
b11 V
b11 z
b11 }
b11 $"
b11 L
b11 {
b11 #"
0="
b11010 T
b11010 h
b11010 l
b11111001 X
b11111001 |
b11111001 -"
b11 \
b11 x
b11 !"
b0 [
b0 w
b0 ~
b10 ;
b10 ^
b10 ""
b10 ;"
b1110011111 S
b1110011111 g
b1110011111 j
b11 :"
b11111001 ,"
b11 )"
b1111 y
b1001 v
b1111 u
b101011 <
b101011 _
b101011 <"
b1110011111 n
b1110011111 f
b11001 i
b11010 ]
b11010 k
b11010 r
b1010111110011111 R
b1010111110011111 t
b11001 %
b11001 6
b11001 Z
b11001 p
b11001 s
1&
19
#53000
0&
09
#54000
1N
b11 Y
b11 0"
b11 1"
b11 3"
b11 5"
b11 7"
19"
b11 b
b11 ."
17
b11 W
b11 *"
b11 +"
0B
xC
bx V
bx z
bx }
bx $"
bx L
bx {
bx #"
b10001111 X
b10001111 |
b10001111 -"
b11110001 S
b11110001 g
b11110001 j
bx [
bx w
bx ~
b11011 T
b11011 h
b11011 l
b1 :"
b10001111 ,"
b0 )"
b1 y
b1111 v
b1000 u
b1010 <
b1010 _
b1010 <"
b11110001 n
b11110001 f
b11010 i
b11011 ]
b11011 k
b11011 r
b10100011110001 R
b10100011110001 t
b11010 %
b11010 6
b11010 Z
b11010 p
b11010 s
1&
19
#55000
b11 4"
b11 "
b11 -
b11 E
0&
09
#56000
0>
0B
b0 Y
b0 0"
b0 1"
b0 3"
b0 5"
b0 7"
0?
09"
b0 b
b0 ."
1:
07
0M
0N
1C
b0 V
b0 z
b0 }
b0 $"
b0 L
b0 {
b0 #"
b0 X
b0 |
b0 -"
b0 \
b0 x
b0 !"
b0 [
b0 w
b0 ~
b0 ;
b0 ^
b0 ""
b0 ;"
b1000 S
b1000 g
b1000 j
b1000 T
b1000 h
b1000 l
b0 :"
b0 ,"
b1000 y
b0 v
b0 u
b0 <
b0 _
b0 <"
b1000 n
b1000 f
b11011 i
b11100 ]
b11100 k
b11100 r
b1000 R
b1000 t
b11011 %
b11011 6
b11011 Z
b11011 p
b11011 s
1&
19
#57000
0&
09
#58000
1>
b11 V
b11 z
b11 }
1B
1?
b11 X
b11 |
b11 -"
0:
b1001 T
b1001 h
b1001 l
b10 ;
b10 ^
b10 ""
b10 ;"
b1001 S
b1001 g
b1001 j
b1 :"
b1001 y
b1000 <
b1000 _
b1000 <"
b1001 n
b1001 f
b1000 i
b1001 ]
b1001 k
b1001 r
b10000000001001 R
b10000000001001 t
b1000 %
b1000 6
b1000 Z
b1000 p
b1000 s
1&
19
#59000
0&
09
#60000
0O
b101 V
b101 z
b101 }
0?
09"
b10110000 X
b10110000 |
b10110000 -"
1:
07
b0 W
b0 *"
b0 +"
0C
b101 $"
b101 L
b101 {
b101 #"
0="
b101 [
b101 w
b101 ~
b1100001010 S
b1100001010 g
b1100001010 j
b1010 T
b1010 h
b1010 l
b10 :"
b10110000 ,"
b11 )"
b1010 y
b1011 u
b101010 <
b101010 _
b101010 <"
b1100001010 n
b1100001010 f
b1001 i
b1010 ]
b1010 k
b1010 r
b1010101100001010 R
b1010101100001010 t
b1001 %
b1001 6
b1001 Z
b1001 p
b1001 s
1&
19
#61000
0&
09
#62000
1?
0:
b0 V
b0 z
b0 }
1B
b110 $"
b110 L
b110 {
b110 #"
b0 X
b0 |
b0 -"
b110 [
b110 w
b110 ~
b100001011 S
b100001011 g
b100001011 j
b1011 T
b1011 h
b1011 l
b11 :"
b10000 ,"
b1 )"
b1011 y
b1 u
b1000 <
b1000 _
b1000 <"
b100001011 n
b100001011 f
b1010 i
b1011 ]
b1011 k
b1011 r
b10000100001011 R
b10000100001011 t
b1010 %
b1010 6
b1010 Z
b1010 p
b1010 s
1&
19
#63000
0&
09
#64000
0B
1N
bx V
bx z
bx }
0?
19"
b10001011 X
b10001011 |
b10001011 -"
1:
17
b11 W
b11 *"
b11 +"
xC
bx $"
bx L
bx {
bx #"
bx [
bx w
bx ~
b10110001 S
b10110001 g
b10110001 j
b1100 T
b1100 h
b1100 l
b1 :"
b10001011 ,"
b0 )"
b1 y
b1011 v
b1000 u
b1010 <
b1010 _
b1010 <"
b10110001 n
b10110001 f
b1011 i
b1100 ]
b1100 k
b1100 r
b10100010110001 R
b10100010110001 t
b1011 %
b1011 6
b1011 Z
b1011 p
b1011 s
1&
19
#65000
b0 4"
b0 "
b0 -
b0 E
0&
09
#66000
09"
07
0N
0O
b0 W
b0 *"
b0 +"
1B
0C
b11111001 V
b11111001 z
b11111001 }
b11111001 $"
b11111001 L
b11111001 {
b11111001 #"
0="
b10110100 X
b10110100 |
b10110100 -"
b111 \
b111 x
b111 !"
b0 [
b0 w
b0 ~
b11 ;
b11 ^
b11 ""
b11 ;"
b1101001110 S
b1101001110 g
b1101001110 j
b1101 T
b1101 h
b1101 l
b10 :"
b10110100 ,"
b11 )"
b1110 y
b100 v
b1011 u
b101110 <
b101110 _
b101110 <"
b1101001110 n
b1101001110 f
b1100 i
b1101 ]
b1101 k
b1101 r
b1011101101001110 R
b1011101101001110 t
b1100 %
b1100 6
b1100 Z
b1100 p
b1100 s
1&
19
